{
  "project_info": {
    "project_number": "254866465354",
    "project_id": "flutter-crud-fd382",
    "storage_bucket": "flutter-crud-fd382.appspot.com"
  },
  "client": [
    {
      "client_info": {
        "mobilesdk_app_id": "1:254866465354:android:0102d9e023389b1d2dbcb3",
        "android_client_info": {
          "package_name": "com.example.firebase_crud"
        }
      },
      "oauth_client": [
        {
          "client_id": "254866465354-ok7g32fvip447fp32o284riqmeuaf112.apps.googleusercontent.com",
          "client_type": 3
        }
      ],
      "api_key": [
        {
          "current_key": "AIzaSyDUAr8EdlHQR_nja4p63CeRtkH-2GIIyWI"
        }
      ],
      "services": {
        "appinvite_service": {
          "other_platform_oauth_client": [
            {
              "client_id": "254866465354-ok7g32fvip447fp32o284riqmeuaf112.apps.googleusercontent.com",
              "client_type": 3
            }
          ]
        }
      }
    }
  ],
  "configuration_version": "1"
}